<svg width="16" height="16" viewBox="0 0 16 16" fill="none" xmlns="http://www.w3.org/2000/svg">
<g clip-path="url(#clip0_456_2701)">
<path d="M14.0576 9.97438C13.8879 9.97438 13.7251 9.90695 13.6051 9.78693C13.4851 9.66691 13.4176 9.50412 13.4176 9.33438V4.31998C13.4176 4.14176 13.3468 3.97083 13.2208 3.84481C13.0948 3.71878 12.9239 3.64798 12.7456 3.64798H3.25443C3.0762 3.64798 2.90528 3.71878 2.77925 3.84481C2.65323 3.97083 2.58243 4.14176 2.58243 4.31998V9.33438C2.58243 9.50412 2.515 9.66691 2.39498 9.78693C2.27495 9.90695 2.11217 9.97438 1.94243 9.97438C1.77269 9.97438 1.6099 9.90695 1.48988 9.78693C1.36986 9.66691 1.30243 9.50412 1.30243 9.33438V4.31998C1.30328 3.80254 1.5092 3.30653 1.87509 2.94064C2.24098 2.57476 2.73699 2.36883 3.25443 2.36798H12.7456C13.2631 2.36883 13.7591 2.57476 14.125 2.94064C14.4909 3.30653 14.6968 3.80254 14.6976 4.31998V9.33438C14.6976 9.50412 14.6302 9.66691 14.5102 9.78693C14.3902 9.90695 14.2274 9.97438 14.0576 9.97438Z" fill="#171321"/>
<path d="M14.336 13.632H1.664C1.22268 13.632 0.799435 13.4567 0.487374 13.1446C0.175314 12.8326 0 12.4093 0 11.968L0 10.9472C0 10.7775 0.0674284 10.6147 0.187452 10.4946C0.307475 10.3746 0.470261 10.3072 0.64 10.3072H15.36C15.5297 10.3072 15.6925 10.3746 15.8125 10.4946C15.9326 10.6147 16 10.7775 16 10.9472V11.968C16 12.4093 15.8247 12.8326 15.5126 13.1446C15.2006 13.4567 14.7773 13.632 14.336 13.632ZM1.28 11.5872V11.968C1.28 12.0184 1.28993 12.0684 1.30923 12.1149C1.32853 12.1615 1.35681 12.2039 1.39247 12.2395C1.42813 12.2752 1.47046 12.3035 1.51705 12.3228C1.56364 12.3421 1.61357 12.352 1.664 12.352H14.336C14.3864 12.352 14.4364 12.3421 14.483 12.3228C14.5295 12.3035 14.5719 12.2752 14.6075 12.2395C14.6432 12.2039 14.6715 12.1615 14.6908 12.1149C14.7101 12.0684 14.72 12.0184 14.72 11.968V11.5872H1.28Z" fill="#171321"/>
<path d="M6.90239 9.74079C6.79883 9.73963 6.69696 9.71444 6.60479 9.66719C6.50152 9.61295 6.41504 9.53152 6.35469 9.43169C6.29435 9.33186 6.26243 9.21744 6.26239 9.1008V4.9184C6.262 4.80137 6.2937 4.68647 6.35405 4.58621C6.4144 4.48594 6.50109 4.40414 6.60468 4.3497C6.70828 4.29526 6.82482 4.27027 6.94163 4.27745C7.05843 4.28462 7.17104 4.32369 7.26719 4.3904L10.3008 6.48C10.3866 6.53877 10.4568 6.61756 10.5053 6.70956C10.5538 6.80156 10.5791 6.904 10.5791 7.00799C10.5791 7.11199 10.5538 7.21443 10.5053 7.30643C10.4568 7.39843 10.3866 7.47722 10.3008 7.53599L7.26719 9.62559C7.16018 9.70029 7.03289 9.74049 6.90239 9.74079ZM7.54239 6.1344V7.88159L8.82239 7.00799L7.54239 6.1344Z" fill="#7759C2"/>
</g>
<defs>
<clipPath id="clip0_456_2701">
<rect width="16" height="16" fill="white"/>
</clipPath>
</defs>
</svg>
