<svg width="32" height="32" viewBox="0 0 32 32" fill="none" xmlns="http://www.w3.org/2000/svg">
<g clip-path="url(#clip0_1335_386)">
<path d="M16.3072 28.0192C11.9375 28.0283 7.58451 27.4798 3.35361 26.3872C2.39183 26.1374 1.54042 25.5749 0.933321 24.7882C0.326223 24.0015 -0.00210006 23.0353 1.01085e-05 22.0416V9.92002C-0.00141879 8.92912 0.325716 7.9657 0.930218 7.18054C1.53472 6.39538 2.38248 5.8328 3.34081 5.58082C3.50776 5.52312 3.68484 5.50059 3.86091 5.51466C4.03699 5.52873 4.20825 5.57909 4.36391 5.66257C4.51958 5.74605 4.65628 5.86085 4.76541 5.99973C4.87455 6.13862 4.95376 6.29859 4.99806 6.46958C5.04236 6.64058 5.05079 6.81889 5.02281 6.99329C4.99484 7.1677 4.93107 7.33443 4.83552 7.483C4.73997 7.63156 4.61471 7.75874 4.46761 7.85653C4.32052 7.95432 4.15477 8.02061 3.98081 8.05122C3.57061 8.16166 3.20862 8.40501 2.95152 8.74318C2.69442 9.08135 2.55673 9.49523 2.56001 9.92002V22.0416C2.55784 22.4689 2.69829 22.8848 2.95912 23.2233C3.21995 23.5618 3.58625 23.8036 4.00001 23.9104C11.8232 25.9951 20.0516 26.0281 27.8912 24.0064L28.0128 23.968C28.4242 23.8588 28.7876 23.6159 29.046 23.2777C29.3043 22.9394 29.4429 22.5249 29.44 22.0992V9.93922C29.4429 9.51359 29.3043 9.09906 29.046 8.76078C28.7876 8.4225 28.4242 8.17966 28.0128 8.07042C21.5176 6.3697 14.7348 6.07081 8.11521 7.19362C7.77658 7.25133 7.4289 7.17216 7.14864 6.97352C6.86839 6.77488 6.67852 6.47305 6.62081 6.13442C6.5631 5.79579 6.64227 5.44811 6.84091 5.16786C7.03955 4.8876 7.34138 4.69773 7.68001 4.64002C14.6589 3.45015 21.8115 3.76436 28.6592 5.56162C29.6186 5.81387 30.4671 6.37741 31.0718 7.16387C31.6764 7.95033 32.0029 8.91522 32 9.90722V22.0992C32.0029 23.0912 31.6764 24.0561 31.0718 24.8426C30.4671 25.629 29.6186 26.1926 28.6592 26.4448C26.8224 27.1552 22.1824 27.7248 21.2288 27.8208C19.84 27.9232 18.1696 28.0192 16.3072 28.0192Z" fill="#171321"/>
<path d="M13.0752 22.8032C12.8658 22.8024 12.6597 22.7519 12.4736 22.656C12.2682 22.5467 12.0966 22.3834 11.977 22.1839C11.8575 21.9843 11.7946 21.7559 11.7952 21.5232V10.4832C11.7948 10.2507 11.8578 10.0224 11.9774 9.82302C12.097 9.62359 12.2687 9.46051 12.4739 9.35128C12.6792 9.24206 12.9104 9.19082 13.1426 9.20307C13.3748 9.21532 13.5993 9.2906 13.792 9.42082L22.0032 14.944C22.1774 15.0611 22.3202 15.2193 22.4189 15.4045C22.5176 15.5898 22.5692 15.7965 22.5692 16.0064C22.5692 16.2164 22.5176 16.4231 22.4189 16.6083C22.3202 16.7936 22.1774 16.9517 22.0032 17.0688L13.792 22.5856C13.5801 22.728 13.3305 22.8038 13.0752 22.8032ZM14.3552 12.8896V19.1232L18.9952 16L14.3552 12.8896Z" fill="#171321"/>
</g>
<defs>
<clipPath id="clip0_1335_386">
<rect width="32" height="32" fill="white"/>
</clipPath>
</defs>
</svg>
