<svg width="32" height="32" viewBox="0 0 32 32" fill="none" xmlns="http://www.w3.org/2000/svg">
<g clip-path="url(#clip0_1145_7076)">
<path d="M7.60156 15.9976C7.60156 14.3372 8.09396 12.714 9.01647 11.3333C9.93899 9.95266 11.2502 8.87657 12.7843 8.24113C14.3184 7.60569 16.0065 7.43943 17.6351 7.76337C19.2636 8.08732 20.7596 8.88692 21.9337 10.0611C23.1079 11.2352 23.9075 12.7312 24.2314 14.3597C24.5554 15.9883 24.3891 17.6764 23.7537 19.2105C23.1182 20.7446 22.0421 22.0558 20.6615 22.9783C19.2808 23.9008 17.6576 24.3932 15.9972 24.3932C13.7705 24.3932 11.6351 23.5087 10.0606 21.9342C8.4861 20.3597 7.60156 18.2243 7.60156 15.9976Z" stroke="#171321" stroke-width="1.27982" stroke-linecap="round" stroke-linejoin="round"/>
<path d="M15.9981 2.96606C18.9955 2.96814 21.9006 4.00317 24.2241 5.89682C26.5475 7.79047 28.1474 10.427 28.7541 13.3624C29.3609 16.2977 28.9375 19.3525 27.5552 22.0121C26.1729 24.6718 23.9163 26.7738 21.1654 27.9641M15.9981 29.0295C12.9913 29.0284 10.0772 27.9879 7.74981 26.0841C5.42239 24.1804 3.82471 21.5305 3.22749 18.5836C2.63027 15.6366 3.07024 12.5738 4.47285 9.91418C5.87546 7.25451 8.15444 5.16154 10.9236 3.98992" stroke="#171321" stroke-width="1.27982" stroke-linecap="round" stroke-linejoin="round"/>
<path d="M17.1639 0.639893L14.8369 2.97008L17.1639 5.30027" stroke="#171321" stroke-width="1.27982" stroke-linecap="round" stroke-linejoin="round"/>
<path d="M14.8369 31.3637L17.1639 29.0336L14.8369 26.7034" stroke="#171321" stroke-width="1.27982" stroke-linecap="round" stroke-linejoin="round"/>
<path d="M12.8104 17.7863L11.0059 15.9818L12.8104 14.1741" stroke="#171321" stroke-width="1.27982" stroke-linecap="round" stroke-linejoin="round"/>
<path d="M19.8701 14.1741L21.6747 15.9818L19.8701 17.7863" stroke="#171321" stroke-width="1.27982" stroke-linecap="round" stroke-linejoin="round"/>
<path d="M17.281 13.2236L15.3965 18.7716" stroke="#171321" stroke-width="1.27982" stroke-linecap="round" stroke-linejoin="round"/>
</g>
<defs>
<clipPath id="clip0_1145_7076">
<rect width="31.9954" height="31.9954" fill="white"/>
</clipPath>
</defs>
</svg>
