<svg width="32" height="32" viewBox="0 0 32 32" fill="none" xmlns="http://www.w3.org/2000/svg">
<g clip-path="url(#clip0_1145_7109)">
<path d="M13.0537 1.38549C15.2246 0.969112 17.4607 1.03718 19.6023 1.58484C21.7438 2.1325 23.7381 3.14624 25.4426 4.55368C27.1471 5.96112 28.5198 7.72753 29.4628 9.7268C30.4057 11.7261 30.8957 13.9089 30.8975 16.1194C30.8974 17.1011 30.802 18.0805 30.6128 19.0437" stroke="#171321" stroke-width="1.27982" stroke-linecap="round" stroke-linejoin="round"/>
<path d="M18.8782 30.8211C16.6997 31.2617 14.4505 31.2131 12.2932 30.6786C10.1358 30.1441 8.12405 29.1371 6.40325 27.7304C4.68246 26.3237 3.29556 24.5524 2.34273 22.5444C1.3899 20.5364 0.894924 18.3418 0.893555 16.1192C0.893264 14.9493 1.02855 13.7833 1.2967 12.6445" stroke="#171321" stroke-width="1.27982" stroke-linecap="round" stroke-linejoin="round"/>
<path d="M14.7172 30.9395C12.3514 29.2597 10.4225 27.0375 9.09202 24.459C7.76157 21.8805 7.06832 19.0208 7.07032 16.1192C7.07032 15.8697 7.07032 15.6233 7.07032 15.377" stroke="#171321" stroke-width="1.27982" stroke-linecap="round" stroke-linejoin="round"/>
<path d="M24.6567 17.6615C24.6983 17.1527 24.7207 16.6376 24.7207 16.1193C24.7222 13.1848 24.0131 10.2935 22.6542 7.6926C21.2952 5.0917 19.3268 2.85849 16.917 1.18384" stroke="#171321" stroke-width="1.27982" stroke-linecap="round" stroke-linejoin="round"/>
<path d="M15.8965 1.1167V31.122" stroke="#171321" stroke-width="1.27982" stroke-linecap="round" stroke-linejoin="round"/>
<path d="M13.0537 11.1184H29.8833" stroke="#171321" stroke-width="1.27982" stroke-linecap="round" stroke-linejoin="round"/>
<path d="M1.90723 21.1204H18.5512" stroke="#171321" stroke-width="1.27982" stroke-linecap="round" stroke-linejoin="round"/>
<path d="M10.4191 10.7538C9.3607 9.81456 7.99473 9.2959 6.57968 9.2959C5.16463 9.2959 3.79867 9.81456 2.74023 10.7538" stroke="#171321" stroke-width="1.27982" stroke-linecap="round" stroke-linejoin="round"/>
<path d="M6.57837 7.2915C7.5148 7.2915 8.27393 6.53238 8.27393 5.59595C8.27393 4.65952 7.5148 3.90039 6.57837 3.90039C5.64194 3.90039 4.88281 4.65952 4.88281 5.59595C4.88281 6.53238 5.64194 7.2915 6.57837 7.2915Z" stroke="#171321" stroke-width="1.27982" stroke-linecap="round" stroke-linejoin="round"/>
<path d="M6.59747 12.2606C9.80645 12.2606 12.4078 9.65923 12.4078 6.45025C12.4078 3.24128 9.80645 0.639893 6.59747 0.639893C3.3885 0.639893 0.787109 3.24128 0.787109 6.45025C0.787109 9.65923 3.3885 12.2606 6.59747 12.2606Z" stroke="#171321" stroke-width="1.27982" stroke-linecap="round" stroke-linejoin="round"/>
<path d="M29.216 29.8485C28.1576 28.9093 26.7916 28.3906 25.3766 28.3906C23.9615 28.3906 22.5955 28.9093 21.5371 29.8485" stroke="#171321" stroke-width="1.27982" stroke-linecap="round" stroke-linejoin="round"/>
<path d="M25.3792 26.3862C26.3156 26.3862 27.0747 25.6271 27.0747 24.6907C27.0747 23.7542 26.3156 22.9951 25.3792 22.9951C24.4427 22.9951 23.6836 23.7542 23.6836 24.6907C23.6836 25.6271 24.4427 26.3862 25.3792 26.3862Z" stroke="#171321" stroke-width="1.27982" stroke-linecap="round" stroke-linejoin="round"/>
<path d="M25.3992 31.3556C28.6082 31.3556 31.2096 28.7542 31.2096 25.5452C31.2096 22.3362 28.6082 19.7349 25.3992 19.7349C22.1903 19.7349 19.5889 22.3362 19.5889 25.5452C19.5889 28.7542 22.1903 31.3556 25.3992 31.3556Z" stroke="#171321" stroke-width="1.27982" stroke-linecap="round" stroke-linejoin="round"/>
</g>
<defs>
<clipPath id="clip0_1145_7109">
<rect width="31.9954" height="31.9954" fill="white"/>
</clipPath>
</defs>
</svg>
