<svg width="32" height="32" viewBox="0 0 32 32" fill="none" xmlns="http://www.w3.org/2000/svg">
<g clip-path="url(#clip0_3386_1764)">
<path d="M29.44 25.8713H23.8748C23.7278 25.3689 23.4219 24.9277 23.003 24.6138C22.5841 24.2999 22.0748 24.1302 21.5513 24.1302C21.0279 24.1302 20.5185 24.2999 20.0996 24.6138C19.6807 24.9277 19.3748 25.3689 19.2278 25.8713H11.4783C11.2066 25.8874 10.9346 25.8477 10.6788 25.7548C10.4231 25.6619 10.189 25.5177 9.991 25.3311C9.793 25.1444 9.63524 24.9193 9.52741 24.6694C9.41958 24.4196 9.36396 24.1504 9.36396 23.8783C9.36396 23.6062 9.41958 23.3369 9.52741 23.0871C9.63524 22.8373 9.793 22.6121 9.991 22.4255C10.189 22.2388 10.4231 22.0946 10.6788 22.0017C10.9346 21.9088 11.2066 21.8692 11.4783 21.8852H20.2226C21.1211 21.8852 21.9828 21.5283 22.6182 20.8929C23.2535 20.2576 23.6104 19.3959 23.6104 18.4974C23.6104 17.5989 23.2535 16.7372 22.6182 16.1018C21.9828 15.4665 21.1211 15.1096 20.2226 15.1096L12.5218 15.0748C12.377 14.5712 12.0724 14.1285 11.6539 13.8133C11.2354 13.4981 10.7257 13.3276 10.2018 13.3276C9.67783 13.3276 9.16813 13.4981 8.74961 13.8133C8.33109 14.1285 8.02647 14.5712 7.88176 15.0748H2.93567V16.4661H7.86089C8.0056 16.9696 8.31022 17.4124 8.72874 17.7276C9.14726 18.0428 9.65696 18.2132 10.1809 18.2132C10.7048 18.2132 11.2145 18.0428 11.633 17.7276C12.0516 17.4124 12.3562 16.9696 12.5009 16.4661H20.2226C20.7521 16.4661 21.26 16.6764 21.6344 17.0509C22.0088 17.4253 22.2191 17.9331 22.2191 18.4626C22.2191 18.9921 22.0088 19.4999 21.6344 19.8744C21.26 20.2488 20.7521 20.4591 20.2226 20.4591H11.4783C11.0209 20.4384 10.5641 20.5106 10.1354 20.6713C9.70677 20.832 9.31511 21.078 8.98414 21.3943C8.65316 21.7106 8.38973 22.0907 8.20975 22.5116C8.02977 22.9326 7.93697 23.3857 7.93697 23.8435C7.93697 24.3013 8.02977 24.7544 8.20975 25.1753C8.38973 25.5963 8.65316 25.9764 8.98414 26.2927C9.31511 26.609 9.70677 26.8549 10.1354 27.0157C10.5641 27.1764 11.0209 27.2486 11.4783 27.2278H19.2C19.347 27.7302 19.6529 28.1715 20.0718 28.4854C20.4907 28.7993 21 28.9689 21.5235 28.9689C22.047 28.9689 22.5563 28.7993 22.9752 28.4854C23.3941 28.1715 23.7 27.7302 23.847 27.2278H29.4122L29.44 25.8713Z" fill="#E5E0FC"/>
<path d="M10.6574 3.81915H8V8.75133H10.6574V3.81915Z" fill="#E5E0FC"/>
<path d="M24.9252 3.81915H22.2678V8.75133H24.9252V3.81915Z" fill="#E5E0FC"/>
<path d="M10.1774 16.1113C11.1379 16.1113 11.9165 15.3327 11.9165 14.3722C11.9165 13.4117 11.1379 12.6331 10.1774 12.6331C9.21687 12.6331 8.43823 13.4117 8.43823 14.3722C8.43823 15.3327 9.21687 16.1113 10.1774 16.1113Z" fill="#AC7FFF"/>
<path d="M21.5234 26.9148C22.4839 26.9148 23.2626 26.1361 23.2626 25.1757C23.2626 24.2152 22.4839 23.4365 21.5234 23.4365C20.5629 23.4365 19.7843 24.2152 19.7843 25.1757C19.7843 26.1361 20.5629 26.9148 21.5234 26.9148Z" fill="#AC7FFF"/>
<path d="M31.3043 24.48H23.847C23.7 23.9776 23.3941 23.5364 22.9752 23.2225C22.5563 22.9086 22.0469 22.7389 21.5235 22.7389C21 22.7389 20.4907 22.9086 20.0718 23.2225C19.6529 23.5364 19.347 23.9776 19.2 24.48H11.4783C10.9488 24.48 10.4409 24.2697 10.0665 23.8952C9.69209 23.5208 9.48174 23.013 9.48174 22.4835C9.48174 21.954 9.69209 21.4462 10.0665 21.0717C10.4409 20.6973 10.9488 20.487 11.4783 20.487H20.2226C20.68 20.5077 21.1368 20.4355 21.5654 20.2748C21.9941 20.1141 22.3858 19.8681 22.7167 19.5518C23.0477 19.2355 23.3112 18.8554 23.4911 18.4345C23.6711 18.0135 23.7639 17.5604 23.7639 17.1026C23.7639 16.6448 23.6711 16.1917 23.4911 15.7708C23.3112 15.3498 23.0477 14.9697 22.7167 14.6534C22.3858 14.3371 21.9941 14.0912 21.5654 13.9304C21.1368 13.7697 20.68 13.6975 20.2226 13.7183L12.5217 13.6835C12.377 13.1799 12.0724 12.7372 11.6539 12.422C11.2354 12.1068 10.7257 11.9363 10.2017 11.9363C9.67781 11.9363 9.16811 12.1068 8.74959 12.422C8.33107 12.7372 8.02646 13.1799 7.88174 13.6835H3.6313V8.40349C3.6313 8.03449 3.77789 7.68061 4.03881 7.41969C4.29973 7.15877 4.65361 7.01218 5.02261 7.01218H7.30435V8.75131C7.30435 8.93581 7.37764 9.11275 7.5081 9.24321C7.63856 9.37367 7.8155 9.44697 8 9.44697H10.6574C10.8419 9.44697 11.0188 9.37367 11.1493 9.24321C11.2798 9.11275 11.353 8.93581 11.353 8.75131V7.01218H21.5652V8.75131C21.5652 8.93581 21.6385 9.11275 21.769 9.24321C21.8994 9.37367 22.0764 9.44697 22.2609 9.44697H24.9183C25.1028 9.44697 25.2797 9.37367 25.4102 9.24321C25.5406 9.11275 25.6139 8.93581 25.6139 8.75131V7.01218H27.3461C27.7151 7.01218 28.069 7.15877 28.3299 7.41969C28.5908 7.68061 28.7374 8.03449 28.7374 8.40349V21.6974C28.7374 21.8819 28.8107 22.0588 28.9411 22.1893C29.0716 22.3198 29.2485 22.3931 29.433 22.3931C29.6175 22.3931 29.7945 22.3198 29.9249 22.1893C30.0554 22.0588 30.1287 21.8819 30.1287 21.6974V8.40349C30.1287 7.66549 29.8355 6.95773 29.3137 6.43589C28.7918 5.91405 28.0841 5.62088 27.3461 5.62088H25.6209V3.88175C25.6209 3.69725 25.5476 3.52031 25.4171 3.38985C25.2867 3.25939 25.1097 3.1861 24.9252 3.1861H22.2609C22.0764 3.1861 21.8994 3.25939 21.769 3.38985C21.6385 3.52031 21.5652 3.69725 21.5652 3.88175V5.62088H11.353V3.88175C11.353 3.69725 11.2798 3.52031 11.1493 3.38985C11.0188 3.25939 10.8419 3.1861 10.6574 3.1861H8C7.8155 3.1861 7.63856 3.25939 7.5081 3.38985C7.37764 3.52031 7.30435 3.69725 7.30435 3.88175V5.62088H5.02261C4.28462 5.62088 3.57685 5.91405 3.05501 6.43589C2.53317 6.95773 2.24 7.66549 2.24 8.40349V13.6765H0.695652C0.511154 13.6765 0.334212 13.7498 0.203752 13.8803C0.0732917 14.0107 0 14.1877 0 14.3722C0 14.5567 0.0732917 14.7336 0.203752 14.8641C0.334212 14.9945 0.511154 15.0678 0.695652 15.0678H7.86087C8.0098 15.5675 8.31605 16.0057 8.73406 16.3173C9.15207 16.6289 9.65951 16.7972 10.1809 16.7972C10.7022 16.7972 11.2097 16.6289 11.6277 16.3173C12.0457 16.0057 12.3519 15.5675 12.5009 15.0678H20.2226C20.4942 15.0518 20.7663 15.0914 21.0221 15.1843C21.2778 15.2772 21.5119 15.4214 21.7099 15.6081C21.9079 15.7947 22.0656 16.0199 22.1735 16.2697C22.2813 16.5195 22.3369 16.7888 22.3369 17.0609C22.3369 17.333 22.2813 17.6022 22.1735 17.8521C22.0656 18.1019 21.9079 18.327 21.7099 18.5137C21.5119 18.7003 21.2778 18.8445 21.0221 18.9374C20.7663 19.0303 20.4942 19.07 20.2226 19.0539H11.4783C10.5798 19.0539 9.71805 19.4109 9.08271 20.0462C8.44737 20.6815 8.09044 21.5432 8.09044 22.4417C8.09044 23.3403 8.44737 24.202 9.08271 24.8373C9.71805 25.4726 10.5798 25.8296 11.4783 25.8296H19.2C19.347 26.332 19.6529 26.7732 20.0718 27.0871C20.4907 27.401 21 27.5707 21.5235 27.5707C22.0469 27.5707 22.5563 27.401 22.9752 27.0871C23.3941 26.7732 23.7 26.332 23.847 25.8296H28.7165V29.2174C28.7165 29.5864 28.5699 29.9403 28.309 30.2012C28.0481 30.4621 27.6942 30.6087 27.3252 30.6087H5.02261C4.65361 30.6087 4.29973 30.4621 4.03881 30.2012C3.77789 29.9403 3.6313 29.5864 3.6313 29.2174V17.8922C3.6313 17.7077 3.55801 17.5307 3.42755 17.4003C3.29709 17.2698 3.12015 17.1965 2.93565 17.1965C2.75115 17.1965 2.57421 17.2698 2.44375 17.4003C2.31329 17.5307 2.24 17.7077 2.24 17.8922V29.2174C2.24 29.9554 2.53317 30.6632 3.05501 31.185C3.57685 31.7068 4.28462 32 5.02261 32H27.353C28.091 32 28.7988 31.7068 29.3206 31.185C29.8425 30.6632 30.1357 29.9554 30.1357 29.2174V25.8713H31.3043C31.4888 25.8713 31.6658 25.798 31.7962 25.6676C31.9267 25.5371 32 25.3602 32 25.1757C32 24.9912 31.9267 24.8142 31.7962 24.6838C31.6658 24.5533 31.4888 24.48 31.3043 24.48ZM22.9565 4.5774H24.2226V8.05566H22.9565V4.5774ZM8.6887 4.5774H9.95478V8.05566H8.69565L8.6887 4.5774ZM10.1704 15.4157C9.96405 15.4157 9.76231 15.3545 9.59071 15.2398C9.41911 15.1251 9.28537 14.9622 9.20639 14.7715C9.12741 14.5808 9.10674 14.371 9.14701 14.1686C9.18727 13.9662 9.28665 13.7803 9.43258 13.6343C9.57852 13.4884 9.76445 13.389 9.96686 13.3488C10.1693 13.3085 10.3791 13.3292 10.5698 13.4081C10.7604 13.4871 10.9234 13.6209 11.0381 13.7925C11.1527 13.9641 11.2139 14.1658 11.2139 14.3722C11.2139 14.6477 11.1049 14.9121 10.9107 15.1076C10.7166 15.3031 10.4529 15.4138 10.1774 15.4157H10.1704ZM21.5235 26.2191C21.3171 26.2191 21.1154 26.1579 20.9438 26.0433C20.7722 25.9286 20.6384 25.7657 20.5594 25.575C20.4805 25.3843 20.4598 25.1745 20.5001 24.9721C20.5403 24.7697 20.6397 24.5837 20.7856 24.4378C20.9316 24.2919 21.1175 24.1925 21.3199 24.1522C21.5223 24.112 21.7321 24.1326 21.9228 24.2116C22.1135 24.2906 22.2764 24.4243 22.3911 24.5959C22.5058 24.7675 22.567 24.9693 22.567 25.1757C22.567 25.4524 22.457 25.7178 22.2613 25.9135C22.0656 26.1092 21.8002 26.2191 21.5235 26.2191Z" fill="#341472"/>
</g>
<defs>
<clipPath id="clip0_3386_1764">
<rect width="32" height="32" fill="white"/>
</clipPath>
</defs>
</svg>
