<svg width="24" height="24" viewBox="0 0 24 24" fill="none" xmlns="http://www.w3.org/2000/svg">
<path d="M2.5 14V2.5H21.5V11.5" stroke="#171321" stroke-miterlimit="10"/>
<path d="M21.5 14V18.5C21.5 20.16 20.16 21.5 18.5 21.5H2.5V16.5" stroke="#171321" stroke-miterlimit="10"/>
<path d="M2.5 6.5H21.5" stroke="#171321" stroke-miterlimit="10"/>
<path d="M17 15.5C17.8284 15.5 18.5 14.8284 18.5 14C18.5 13.1716 17.8284 12.5 17 12.5C16.1716 12.5 15.5 13.1716 15.5 14C15.5 14.8284 16.1716 15.5 17 15.5Z" stroke="#171321" stroke-miterlimit="10"/>
<path d="M7 15.5C7.82843 15.5 8.5 14.8284 8.5 14C8.5 13.1716 7.82843 12.5 7 12.5C6.17157 12.5 5.5 13.1716 5.5 14C5.5 14.8284 6.17157 15.5 7 15.5Z" stroke="#171321" stroke-miterlimit="10"/>
<path d="M16.23 12.72L14 10L10 18L7.77002 15.29" stroke="#171321" stroke-miterlimit="10"/>
<path d="M18.5 14H24" stroke="#171321" stroke-miterlimit="10"/>
<path d="M5.5 14H0" stroke="#171321" stroke-miterlimit="10"/>
</svg>
