<svg width="24" height="24" viewBox="0 0 24 24" fill="none" xmlns="http://www.w3.org/2000/svg">
<path d="M2.5 16.5V9.5H21.5V14.5" stroke="#171321" stroke-miterlimit="10"/>
<path d="M21.5 16.5V20.5C21.5 22.16 20.16 23.5 18.5 23.5H2.5V18.5" stroke="#171321" stroke-miterlimit="10"/>
<path d="M12 0.5C16.14 0.5 19.5 3.86 19.5 8V9.5H4.5V8C4.5 3.86 7.86 0.5 12 0.5Z" stroke="#171321" stroke-miterlimit="10"/>
<path d="M12 18C12.8284 18 13.5 17.3284 13.5 16.5C13.5 15.6716 12.8284 15 12 15C11.1716 15 10.5 15.6716 10.5 16.5C10.5 17.3284 11.1716 18 12 18Z" stroke="#171321" stroke-miterlimit="10"/>
<path d="M13.5 16.5H24" stroke="#171321" stroke-miterlimit="10"/>
<path d="M0 16.5H11" stroke="#171321" stroke-miterlimit="10"/>
</svg>
