<svg width="33" height="32" viewBox="0 0 33 32" fill="none" xmlns="http://www.w3.org/2000/svg">
<g clip-path="url(#clip0_7608_15004)">
<path d="M5.27861 9.57619C5.41181 9.86708 5.48365 10.1823 5.48966 10.5022C5.49567 10.8221 5.43572 11.1397 5.31354 11.4354C5.19136 11.7311 5.00958 11.9985 4.77952 12.2208C4.54947 12.4431 4.27608 12.6157 3.9764 12.7277L1.45196 13.6428C1.21198 15.1799 1.21198 16.745 1.45196 18.2821L3.9764 19.2004C4.27746 19.3101 4.55242 19.4812 4.7838 19.7029C5.01517 19.9245 5.1979 20.1919 5.32037 20.488C5.44284 20.7841 5.50237 21.1024 5.49518 21.4228C5.48799 21.7431 5.41424 22.0584 5.27861 22.3487L4.14277 24.7804C5.06191 26.0369 6.1704 27.1432 7.4287 28.0599L9.85715 26.9273C10.1478 26.7941 10.4628 26.7223 10.7825 26.7163C11.1021 26.7104 11.4196 26.7703 11.715 26.8925C12.0104 27.0147 12.2775 27.1965 12.4995 27.4266C12.7216 27.6566 12.8938 27.9299 13.0055 28.2295L13.9238 30.7539C14.6911 30.8749 15.4666 30.9359 16.2434 30.9363M16.2434 0.991829C15.4668 0.992005 14.6912 1.05191 13.9238 1.171L13.0055 3.69544C12.8937 3.995 12.7215 4.26834 12.4996 4.49845C12.2776 4.72857 12.0106 4.91052 11.7153 5.03297C11.4199 5.15543 11.1025 5.21578 10.7829 5.21025C10.4632 5.20472 10.1481 5.13344 9.85715 5.00085L7.4287 3.86501C6.17033 4.78287 5.06185 5.89026 4.14277 7.14774M16.2434 20.8706C15.5886 20.8873 14.937 20.7727 14.327 20.5337C13.7171 20.2946 13.1613 19.9359 12.6922 19.4786C12.2231 19.0214 11.8503 18.4748 11.5957 17.8712C11.3412 17.2676 11.21 16.6192 11.21 15.9641C11.21 15.309 11.3412 14.6605 11.5957 14.0569C11.8503 13.4533 12.2231 12.9068 12.6922 12.4495C13.1613 11.9922 13.7171 11.6335 14.327 11.3944C14.937 11.1554 15.5886 11.0409 16.2434 11.0576" stroke="#171321" stroke-width="1.27982" stroke-linecap="round" stroke-linejoin="round"/>
<path d="M24.5232 5.26325H20.8789V8.90758H24.5232V5.26325Z" stroke="#171321" stroke-width="1.27982" stroke-linecap="round" stroke-linejoin="round"/>
<path d="M24.5232 14.1451H20.8789V17.7895H24.5232V14.1451Z" stroke="#171321" stroke-width="1.27982" stroke-linecap="round" stroke-linejoin="round"/>
<path d="M31.9954 9.70423H28.3511V13.3486H31.9954V9.70423Z" stroke="#171321" stroke-width="1.27982" stroke-linecap="round" stroke-linejoin="round"/>
<path d="M31.9954 18.5861H28.3511V22.2304H31.9954V18.5861Z" stroke="#171321" stroke-width="1.27982" stroke-linecap="round" stroke-linejoin="round"/>
<path d="M24.5232 23.027H20.8789V26.6714H24.5232V23.027Z" stroke="#171321" stroke-width="1.27982" stroke-linecap="round" stroke-linejoin="round"/>
<path d="M16.2432 27.4456V0.991829" stroke="#171321" stroke-width="1.27982" stroke-linecap="round" stroke-linejoin="round"/>
</g>
<defs>
<clipPath id="clip0_7608_15004">
<rect width="31.9954" height="31.9954" fill="white" transform="translate(0.623535 0.00314331)"/>
</clipPath>
</defs>
</svg>
