<svg width="16" height="16" viewBox="0 0 16 16" fill="none" xmlns="http://www.w3.org/2000/svg">
<path d="M12.96 13.728H9.184C8.832 13.728 8.544 13.44 8.544 13.088C8.544 12.736 8.832 12.448 9.184 12.448H12.96C13.312 12.448 13.6 12.16 13.6 11.808V1.92C13.6 1.568 13.312 1.28 12.96 1.28H3.04C2.688 1.28 2.4 1.568 2.4 1.92V11.808C2.4 12.16 2.688 12.448 3.04 12.448H5.40799C5.75999 12.448 6.048 12.736 6.048 13.088C6.048 13.44 5.75999 13.728 5.40799 13.728H3.04C1.984 13.728 1.12 12.864 1.12 11.808V1.92C1.12 0.864 1.984 0 3.04 0H12.96C14.016 0 14.88 0.864 14.88 1.92V11.808C14.88 12.864 14.016 13.728 12.96 13.728Z" fill="#7225BA"/>
<path d="M11.36 6.75199H4.64C4.288 6.75199 4 6.46399 4 6.11199V3.32799C4 2.97599 4.288 2.68799 4.64 2.68799H11.36C11.712 2.68799 12 2.97599 12 3.32799V6.11199C12 6.46399 11.712 6.75199 11.36 6.75199ZM5.28 5.47199H10.72V3.96799H5.28V5.47199Z" fill="#7225BA"/>
<path d="M8.704 11.04H4.64C4.288 11.04 4 10.752 4 10.4C4 10.048 4.288 9.76001 4.64 9.76001H8.704C9.056 9.76001 9.344 10.048 9.344 10.4C9.344 10.752 9.056 11.04 8.704 11.04Z" fill="#7225BA"/>
<path d="M11.36 8.89597H4.64C4.288 8.89597 4 8.60797 4 8.25597C4 7.90397 4.288 7.61597 4.64 7.61597H11.36C11.712 7.61597 12 7.90397 12 8.25597C12 8.60797 11.712 8.89597 11.36 8.89597Z" fill="#7225BA"/>
<path d="M5.40794 15.9999C5.31194 15.9999 5.18394 15.9679 5.08794 15.9039C4.89594 15.7759 4.76794 15.5839 4.76794 15.3599V13.0879C4.76794 12.7359 5.05594 12.4479 5.40794 12.4479C5.75994 12.4479 6.04794 12.7359 6.04794 13.0879V14.2399L8.83194 12.5439C9.11994 12.3519 9.53594 12.4479 9.69594 12.7679C9.88794 13.0559 9.79194 13.4719 9.47194 13.6319L5.75994 15.9039C5.66394 15.9679 5.53594 15.9999 5.40794 15.9999Z" fill="#7225BA"/>
</svg>
