<svg width="35" height="35" viewBox="0 0 35 35" fill="none" xmlns="http://www.w3.org/2000/svg">
<path d="M17.5 35C27.165 35 35 27.165 35 17.5C35 7.83502 27.165 0 17.5 0C7.83502 0 0 7.83502 0 17.5C0 27.165 7.83502 35 17.5 35Z" fill="#F96424"/>
<path fill-rule="evenodd" clip-rule="evenodd" d="M12.25 13.875V11.25C12.25 8.3505 14.6005 6 17.5 6C20.3995 6 22.75 8.3505 22.75 11.25V13.875H25.375V27H9.625V13.875H12.25ZM14.875 13.875H20.125V11.25C20.125 9.80025 18.9497 8.625 17.5 8.625C16.0503 8.625 14.875 9.80025 14.875 11.25V13.875ZM12.25 16.5V24.375H22.75V16.5H12.25ZM16.1875 19.125H18.8125V21.75H16.1875V19.125Z" fill="white"/>
</svg>
