<svg width="32" height="32" viewBox="0 0 32 32" fill="none" xmlns="http://www.w3.org/2000/svg">
<path d="M29.8687 12.5248H2.13107C1.7916 12.5248 1.46602 12.3899 1.22598 12.1499C0.985931 11.9098 0.851074 11.5843 0.851074 11.2448C0.851074 10.9053 0.985931 10.5797 1.22598 10.3397C1.46602 10.0996 1.7916 9.96478 2.13107 9.96478H29.8687C30.2081 9.96478 30.5337 10.0996 30.7738 10.3397C31.0138 10.5797 31.1487 10.9053 31.1487 11.2448C31.1487 11.5843 31.0138 11.9098 30.7738 12.1499C30.5337 12.3899 30.2081 12.5248 29.8687 12.5248Z" fill="#7D2BD9"/>
<path d="M27.3087 31.9999H4.69107C3.67264 31.9999 2.69592 31.5954 1.97578 30.8752C1.25564 30.1551 0.851074 29.1784 0.851074 28.1599V15.1295C0.851074 14.7901 0.985931 14.4645 1.22598 14.2245C1.46602 13.9844 1.7916 13.8495 2.13107 13.8495C2.47055 13.8495 2.79612 13.9844 3.03617 14.2245C3.27622 14.4645 3.41107 14.7901 3.41107 15.1295V28.1599C3.41107 28.4994 3.54593 28.825 3.78598 29.065C4.02602 29.3051 4.3516 29.4399 4.69107 29.4399H27.3087C27.6481 29.4399 27.9737 29.3051 28.2138 29.065C28.4538 28.825 28.5887 28.4994 28.5887 28.1599V15.1295C28.5887 14.7901 28.7235 14.4645 28.9636 14.2245C29.2036 13.9844 29.5292 13.8495 29.8687 13.8495C30.2081 13.8495 30.5337 13.9844 30.7738 14.2245C31.0138 14.4645 31.1487 14.7901 31.1487 15.1295V28.1599C31.1487 29.1784 30.7441 30.1551 30.024 30.8752C29.3038 31.5954 28.3271 31.9999 27.3087 31.9999Z" fill="#7D2BD9"/>
<path d="M2.13107 12.5248C1.7916 12.5248 1.46602 12.39 1.22598 12.1499C0.985931 11.9099 0.851074 11.5843 0.851074 11.2449V6.12485C0.851074 5.10642 1.25564 4.1297 1.97578 3.40956C2.69592 2.68942 3.67264 2.28485 4.69107 2.28485H23.5263C23.8657 2.28485 24.1913 2.41971 24.4314 2.65975C24.6714 2.8998 24.8063 3.22537 24.8063 3.56485C24.8063 3.90433 24.6714 4.2299 24.4314 4.46995C24.1913 4.70999 23.8657 4.84485 23.5263 4.84485H4.69107C4.3516 4.84485 4.02602 4.97971 3.78598 5.21975C3.54593 5.4598 3.41107 5.78537 3.41107 6.12485V11.2449C3.41107 11.5843 3.27622 11.9099 3.03617 12.1499C2.79612 12.39 2.47055 12.5248 2.13107 12.5248Z" fill="#7D2BD9"/>
<path d="M29.8687 12.5248C29.5293 12.5248 29.2037 12.39 28.9636 12.1499C28.7236 11.9099 28.5887 11.5843 28.5887 11.2449V6.12485C28.5887 5.78537 28.4539 5.4598 28.2138 5.21975C27.9738 4.97971 27.6482 4.84485 27.3087 4.84485H23.5263C23.1869 4.84485 22.8613 4.70999 22.6212 4.46995C22.3812 4.2299 22.2463 3.90433 22.2463 3.56485C22.2463 3.22537 22.3812 2.8998 22.6212 2.65975C22.8613 2.41971 23.1869 2.28485 23.5263 2.28485H27.3087C28.3272 2.28485 29.3039 2.68942 30.024 3.40956C30.7442 4.1297 31.1487 5.10642 31.1487 6.12485V11.2449C31.1487 11.5843 31.0139 11.9099 30.7738 12.1499C30.5338 12.39 30.2082 12.5248 29.8687 12.5248Z" fill="#7D2BD9"/>
<path d="M8.4736 7.0848C8.13413 7.0848 7.80855 6.94994 7.56851 6.7099C7.32846 6.46985 7.1936 6.14428 7.1936 5.8048V1.28C7.1936 0.940523 7.32846 0.61495 7.56851 0.374903C7.80855 0.134857 8.13413 0 8.4736 0C8.81308 0 9.13865 0.134857 9.3787 0.374903C9.61875 0.61495 9.7536 0.940523 9.7536 1.28V5.8048C9.7536 6.14428 9.61875 6.46985 9.3787 6.7099C9.13865 6.94994 8.81308 7.0848 8.4736 7.0848Z" fill="#7D2BD9"/>
<path d="M23.5263 7.0848C23.1869 7.0848 22.8613 6.94994 22.6212 6.7099C22.3812 6.46985 22.2463 6.14428 22.2463 5.8048V1.28C22.2463 0.940523 22.3812 0.61495 22.6212 0.374903C22.8613 0.134857 23.1869 0 23.5263 0C23.8658 0 24.1914 0.134857 24.4314 0.374903C24.6715 0.61495 24.8063 0.940523 24.8063 1.28V5.8048C24.8063 6.14428 24.6715 6.46985 24.4314 6.7099C24.1914 6.94994 23.8658 7.0848 23.5263 7.0848Z" fill="#7D2BD9"/>
<path d="M17.376 19.4048H14.624C14.2845 19.4048 13.9589 19.27 13.7189 19.0299C13.4789 18.7899 13.344 18.4643 13.344 18.1248C13.344 17.7854 13.4789 17.4598 13.7189 17.2198C13.9589 16.9797 14.2845 16.8448 14.624 16.8448H17.376C17.7155 16.8448 18.041 16.9797 18.2811 17.2198C18.5211 17.4598 18.656 17.7854 18.656 18.1248C18.656 18.4643 18.5211 18.7899 18.2811 19.0299C18.041 19.27 17.7155 19.4048 17.376 19.4048Z" fill="#7D2BD9"/>
<path d="M17.376 25.1136H14.624C14.2845 25.1136 13.9589 24.9787 13.7189 24.7387C13.4789 24.4986 13.344 24.1731 13.344 23.8336C13.344 23.4941 13.4789 23.1685 13.7189 22.9285C13.9589 22.6884 14.2845 22.5536 14.624 22.5536H17.376C17.7155 22.5536 18.041 22.6884 18.2811 22.9285C18.5211 23.1685 18.656 23.4941 18.656 23.8336C18.656 24.1731 18.5211 24.4986 18.2811 24.7387C18.041 24.9787 17.7155 25.1136 17.376 25.1136Z" fill="#7D2BD9"/>
<path d="M23.9809 19.4048H21.2353C20.8958 19.4048 20.5703 19.27 20.3302 19.0299C20.0902 18.7899 19.9553 18.4643 19.9553 18.1248C19.9553 17.7854 20.0902 17.4598 20.3302 17.2198C20.5703 16.9797 20.8958 16.8448 21.2353 16.8448H23.9809C24.3204 16.8448 24.646 16.9797 24.886 17.2198C25.1261 17.4598 25.2609 17.7854 25.2609 18.1248C25.2609 18.4643 25.1261 18.7899 24.886 19.0299C24.646 19.27 24.3204 19.4048 23.9809 19.4048Z" fill="#7D2BD9"/>
<path d="M10.7649 25.1136H8.01926C7.67978 25.1136 7.35421 24.9787 7.11416 24.7387C6.87411 24.4986 6.73926 24.1731 6.73926 23.8336C6.73926 23.4941 6.87411 23.1685 7.11416 22.9285C7.35421 22.6884 7.67978 22.5536 8.01926 22.5536H10.7649C11.1043 22.5536 11.4299 22.6884 11.67 22.9285C11.91 23.1685 12.0449 23.4941 12.0449 23.8336C12.0449 24.1731 11.91 24.4986 11.67 24.7387C11.4299 24.9787 11.1043 25.1136 10.7649 25.1136Z" fill="#7D2BD9"/>
</svg>
