<svg width="96" height="96" viewBox="0 0 96 96" fill="none" xmlns="http://www.w3.org/2000/svg">
<path d="M48 2.88C36.9413 2.88241 26.2531 6.86589 17.8903 14.1018C9.52754 21.3378 4.04922 31.3425 2.4574 42.286C0.865569 53.2295 3.26664 64.3804 9.22142 73.6989C15.1762 83.0174 24.2867 89.8808 34.8864 93.0336L44.2272 60.3936C41.4901 59.4879 39.167 57.6336 37.677 55.1654C36.187 52.6972 35.6284 49.7777 36.102 46.9338C36.5756 44.09 38.0501 41.509 40.2595 39.6568C42.4689 37.8047 45.2676 36.8033 48.1505 36.8334C51.0333 36.8635 53.8105 37.9231 55.9807 39.821C58.151 41.7189 59.5713 44.3301 59.9853 47.1833C60.3994 50.0364 59.7799 52.9436 58.2388 55.3801C56.6976 57.8167 54.3362 59.622 51.5808 60.4704L60.4128 93.216C71.1048 90.2009 80.3457 83.4208 86.4309 74.1267C92.516 64.8325 95.0348 53.6513 93.5225 42.6457C92.0103 31.6401 86.5691 21.5526 78.2026 14.2442C69.8362 6.93582 59.109 2.89955 48 2.88Z" fill="#38F2AF"/>
<path d="M69.6576 91.5552C69.2311 91.5531 68.8174 91.409 68.4818 91.1457C68.1462 90.8823 67.9079 90.5148 67.8045 90.1009C67.701 89.6871 67.7383 89.2506 67.9105 88.8603C68.0826 88.4701 68.3799 88.1482 68.7552 87.9456C75.8253 84.181 81.7383 78.5642 85.8612 71.6968C89.984 64.8294 92.1613 56.97 92.16 48.96C92.16 48.4508 92.3623 47.9625 92.7224 47.6024C93.0824 47.2423 93.5708 47.04 94.08 47.04C94.5892 47.04 95.0776 47.2423 95.4377 47.6024C95.7977 47.9625 96 48.4508 96 48.96C96.0012 57.6663 93.6344 66.2089 89.1531 73.6732C84.6718 81.1375 78.2447 87.2425 70.56 91.3344C70.2818 91.4808 69.972 91.5566 69.6576 91.5552Z" fill="#380D75"/>
<path d="M51.4656 62.4864C51.0049 62.4904 50.5581 62.3285 50.2068 62.0303C49.8556 61.7322 49.6232 61.3177 49.5522 60.8625C49.4812 60.4072 49.5762 59.9417 49.82 59.5507C50.0637 59.1597 50.44 58.8694 50.88 58.7328C52.985 58.1018 54.8318 56.8117 56.1487 55.0524C57.4655 53.2931 58.1829 51.1576 58.1952 48.96C58.1952 48.4508 58.3975 47.9625 58.7575 47.6024C59.1176 47.2423 59.606 47.04 60.1152 47.04C60.6244 47.04 61.1128 47.2423 61.4728 47.6024C61.8329 47.9625 62.0352 48.4508 62.0352 48.96C62.021 51.9774 61.04 54.9108 59.2362 57.3297C57.4324 59.7486 54.9007 61.5256 52.0128 62.4C51.836 62.457 51.6514 62.4861 51.4656 62.4864Z" fill="#380D75"/>
<path d="M61.1712 95.04C60.757 95.0406 60.3537 94.9072 60.0215 94.6598C59.6893 94.4124 59.4461 94.0642 59.328 93.6672L49.6224 61.1136C49.5025 60.6339 49.5723 60.1264 49.8173 59.6969C50.0622 59.2673 50.4635 58.9489 50.9374 58.8078C51.4113 58.6668 51.9214 58.714 52.3613 58.9396C52.8013 59.1653 53.1373 59.552 53.2992 60.0192L63.0144 92.5728C63.0867 92.8148 63.1104 93.0687 63.0843 93.32C63.0583 93.5712 62.9829 93.8149 62.8625 94.0369C62.7421 94.259 62.5791 94.4551 62.3828 94.614C62.1864 94.773 61.9607 94.8916 61.7184 94.9632C61.5411 95.0169 61.3565 95.0428 61.1712 95.04Z" fill="#380D75"/>
<path d="M44.5344 62.4864C44.3491 62.4892 44.1645 62.4633 43.9872 62.4096C41.0977 61.5348 38.5649 59.7563 36.761 57.3354C34.957 54.9146 33.9769 51.9791 33.9648 48.96C33.9648 48.4508 34.1671 47.9625 34.5271 47.6024C34.8872 47.2423 35.3756 47.04 35.8848 47.04C36.394 47.04 36.8824 47.2423 37.2424 47.6024C37.6025 47.9625 37.8048 48.4508 37.8048 48.96C37.8171 51.1576 38.5344 53.2931 39.8513 55.0524C41.1682 56.8117 43.015 58.1018 45.12 58.7328C45.5569 58.8684 45.931 59.1556 46.175 59.5425C46.419 59.9295 46.5168 60.3909 46.4508 60.8435C46.3848 61.2962 46.1594 61.7105 45.8151 62.0117C45.4708 62.3129 45.0302 62.4812 44.5728 62.4864H44.5344Z" fill="#380D75"/>
<path d="M34.8288 95.04C34.6435 95.0428 34.4589 95.0169 34.2816 94.9632C24.3989 91.9696 15.7365 85.8861 9.56626 77.6062C3.39604 69.3262 0.0431701 59.2861 0 48.96C0 48.4508 0.202285 47.9625 0.562355 47.6024C0.922425 47.2423 1.41078 47.04 1.92 47.04C2.42922 47.04 2.91758 47.2423 3.27765 47.6024C3.63771 47.9625 3.84 48.4508 3.84 48.96C3.88078 58.4597 6.96539 67.6962 12.6412 75.314C18.3169 82.9318 26.285 88.5298 35.376 91.2864C35.8129 91.422 36.187 91.7092 36.431 92.0961C36.675 92.4831 36.7728 92.9445 36.7068 93.3971C36.6408 93.8498 36.4154 94.2641 36.0711 94.5653C35.7268 94.8665 35.2862 95.0348 34.8288 95.04Z" fill="#380D75"/>
<path d="M34.8288 95.04C34.6435 95.0428 34.4589 95.0169 34.2816 94.9632C34.0393 94.8916 33.8136 94.773 33.6172 94.614C33.4209 94.4551 33.2579 94.259 33.1375 94.0369C33.0171 93.8149 32.9417 93.5712 32.9157 93.32C32.8896 93.0687 32.9133 92.8148 32.9856 92.5728L42.7008 60.0192C42.8627 59.552 43.1987 59.1653 43.6386 58.9396C44.0786 58.714 44.5887 58.6668 45.0626 58.8078C45.5365 58.9489 45.9377 59.2673 46.1827 59.6969C46.4277 60.1264 46.4975 60.6339 46.3776 61.1136L36.672 93.6672C36.5539 94.0642 36.3106 94.4124 35.9785 94.6598C35.6463 94.9072 35.243 95.0406 34.8288 95.04Z" fill="#380D75"/>
<path d="M3.12958 40.3199C2.98272 40.3341 2.83484 40.3341 2.68798 40.3199C2.1931 40.2035 1.76459 39.8956 1.49644 39.4637C1.22829 39.0317 1.14239 38.5111 1.25758 38.0159C3.69017 27.4532 9.64203 18.0315 18.1359 11.2978C26.6298 4.56414 37.1608 0.918657 48 0.959942C48.5092 0.959942 48.9976 1.16223 49.3576 1.5223C49.7177 1.88237 49.92 2.37073 49.92 2.87994C49.92 3.38916 49.7177 3.87752 49.3576 4.23759C48.9976 4.59766 48.5092 4.79994 48 4.79994C38.0283 4.75877 28.3391 8.1099 20.5236 14.303C12.7081 20.496 7.23107 29.1628 4.99198 38.8799C4.88542 39.2926 4.64457 39.6581 4.30737 39.9189C3.97018 40.1796 3.55581 40.3207 3.12958 40.3199Z" fill="#380D75"/>
<path d="M94.08 50.88C93.5708 50.88 93.0824 50.6777 92.7224 50.3176C92.3623 49.9575 92.16 49.4692 92.16 48.96C92.1473 37.2519 87.4907 26.027 79.2118 17.7482C70.933 9.4693 59.7081 4.81267 48 4.79996C47.4908 4.79996 47.0024 4.59768 46.6424 4.23761C46.2823 3.87754 46.08 3.38918 46.08 2.87996C46.08 2.37075 46.2823 1.88239 46.6424 1.52232C47.0024 1.16225 47.4908 0.959961 48 0.959961C60.7257 0.975204 72.9259 6.03723 81.9243 15.0357C90.9227 24.0341 95.9848 36.2342 96 48.96C96 49.4692 95.7977 49.9575 95.4377 50.3176C95.0776 50.6777 94.5892 50.88 94.08 50.88Z" fill="#380D75"/>
<path d="M60.1152 50.88C59.606 50.88 59.1176 50.6777 58.7575 50.3177C58.3975 49.9576 58.1952 49.4692 58.1952 48.96C58.1952 46.2561 57.1211 43.6629 55.2091 41.7509C53.2971 39.8389 50.7039 38.7648 48 38.7648C45.296 38.7648 42.7029 39.8389 40.7909 41.7509C38.8789 43.6629 37.8048 46.2561 37.8048 48.96C37.8048 49.4692 37.6025 49.9576 37.2424 50.3177C36.8824 50.6777 36.394 50.88 35.8848 50.88C35.3756 50.88 34.8872 50.6777 34.5271 50.3177C34.1671 49.9576 33.9648 49.4692 33.9648 48.96C33.9648 45.2376 35.4435 41.6677 38.0756 39.0356C40.7077 36.4035 44.2776 34.9248 48 34.9248C51.7223 34.9248 55.2923 36.4035 57.9244 39.0356C60.5565 41.6677 62.0352 45.2376 62.0352 48.96C62.0352 49.4692 61.8329 49.9576 61.4728 50.3177C61.1128 50.6777 60.6244 50.88 60.1152 50.88Z" fill="#380D75"/>
</svg>
