<svg width="40" height="40" viewBox="0 0 40 40" fill="none" xmlns="http://www.w3.org/2000/svg">
<g clip-path="url(#clip0_173_740)">
<path d="M9.696 35.7561H0.799999V39.2001H9.696V35.7561Z" fill="#AC7FFF"/>
<path d="M39.196 35.7561H30.3V39.2001H39.196V35.7561Z" fill="#AC7FFF"/>
<path d="M34.244 4.84005H17.844L14.62 0.800049H0.799999V25.976C0.80106 27.2314 1.3005 28.435 2.18856 29.3223C3.07661 30.2096 4.28063 30.708 5.536 30.708C6.79137 30.708 7.99539 30.2096 8.88344 29.3223C9.7715 28.435 10.2709 27.2314 10.272 25.976V8.37605H34.244V4.84005Z" fill="#E5E0FC"/>
<path d="M24.756 24.4L30.116 20.508C30.1877 20.4552 30.2409 20.3812 30.2682 20.2965C30.2955 20.2118 30.2954 20.1207 30.268 20.036L28.424 14.356C28.4094 14.3146 28.3824 14.2787 28.3466 14.2533C28.3107 14.2279 28.2679 14.2143 28.224 14.2143C28.1801 14.2143 28.1373 14.2279 28.1015 14.2533C28.0656 14.2787 28.0386 14.3146 28.024 14.356L26.8 18.124H22.72L21.492 14.348C21.4774 14.3066 21.4504 14.2707 21.4146 14.2453C21.3787 14.2199 21.3359 14.2063 21.292 14.2063C21.2481 14.2063 21.2053 14.2199 21.1694 14.2453C21.1336 14.2707 21.1066 14.3066 21.092 14.348L19.248 20.028C19.2206 20.1127 19.2205 20.2038 19.2478 20.2885C19.2751 20.3732 19.3283 20.4472 19.4 20.5L24.756 24.4Z" fill="#FC6D26"/>
<path d="M5.536 31.508C4.06878 31.5069 2.6619 30.9239 1.62404 29.8868C0.586181 28.8497 0.00211835 27.4432 0 25.976V0.8C0 0.587827 0.0842855 0.384344 0.234315 0.234315C0.384344 0.0842855 0.587827 0 0.8 0L14.62 0C14.7398 7.48882e-05 14.8581 0.0270723 14.9661 0.0789979C15.0741 0.130924 15.1691 0.206451 15.244 0.3L18.236 4.04H34.236C34.4482 4.04 34.6517 4.12429 34.8017 4.27431C34.9517 4.42434 35.036 4.62783 35.036 4.84C35.036 5.05217 34.9517 5.25566 34.8017 5.40568C34.6517 5.55571 34.4482 5.64 34.236 5.64H17.836C17.7162 5.63993 17.5979 5.61293 17.4899 5.561C17.3819 5.50908 17.2869 5.43355 17.212 5.34L14.236 1.6H1.6V25.976C1.60212 27.0189 2.01761 28.0184 2.75541 28.7554C3.49321 29.4925 4.49312 29.9069 5.536 29.908C5.74817 29.908 5.95166 29.9923 6.10169 30.1423C6.25171 30.2923 6.336 30.4958 6.336 30.708C6.336 30.9202 6.25171 31.1237 6.10169 31.2737C5.95166 31.4237 5.74817 31.508 5.536 31.508Z" fill="#380D75"/>
<path d="M34.464 31.5079H5.536C5.32383 31.5079 5.12034 31.4236 4.97031 31.2736C4.82029 31.1236 4.736 30.9201 4.736 30.7079C4.736 30.4958 4.82029 30.2923 4.97031 30.1422C5.12034 29.9922 5.32383 29.9079 5.536 29.9079C6.57888 29.9069 7.57879 29.4924 8.31659 28.7553C9.05439 28.0183 9.46988 27.0188 9.472 25.9759V8.37593C9.472 8.16375 9.55629 7.96027 9.70632 7.81024C9.85634 7.66021 10.0598 7.57593 10.272 7.57593H39.2C39.4122 7.57593 39.6157 7.66021 39.7657 7.81024C39.9157 7.96027 40 8.16375 40 8.37593V25.9759C39.9979 27.4431 39.4138 28.8496 38.376 29.8867C37.3381 30.9238 35.9312 31.5069 34.464 31.5079ZM9.424 29.9079H34.464C35.5069 29.9069 36.5068 29.4924 37.2446 28.7553C37.9824 28.0183 38.3979 27.0188 38.4 25.9759V9.17593H11.072V25.9759C11.0719 26.7079 10.9262 27.4325 10.6432 28.1076C10.3603 28.7826 9.94584 29.3946 9.424 29.9079Z" fill="#380D75"/>
<path d="M24.756 25.2C24.5879 25.1998 24.4242 25.1466 24.288 25.048L18.928 21.156C18.7161 21.0065 18.5584 20.7925 18.4783 20.5459C18.3983 20.2993 18.4003 20.0334 18.484 19.788L20.328 14.108C20.3943 13.9051 20.523 13.7283 20.6958 13.603C20.8686 13.4776 21.0765 13.4102 21.29 13.4102C21.5035 13.4102 21.7114 13.4776 21.8842 13.603C22.057 13.7283 22.1857 13.9051 22.252 14.108L23.3 17.332H26.212L27.26 14.112C27.3256 13.9096 27.4532 13.7331 27.6248 13.6075C27.7965 13.4818 28.0033 13.4134 28.216 13.412C28.4316 13.4057 28.6436 13.4688 28.8207 13.5919C28.9978 13.715 29.1308 13.8917 29.2 14.096L31.048 19.784C31.1289 20.0292 31.1299 20.2938 31.0508 20.5396C30.9717 20.7855 30.8167 20.9999 30.608 21.152L25.248 25.044C25.1057 25.1489 24.9327 25.2038 24.756 25.2ZM20.088 20.02L24.756 23.408L29.424 20.02L28.224 16.32L27.556 18.372C27.5039 18.5317 27.4029 18.671 27.2672 18.7701C27.1315 18.8692 26.968 18.923 26.8 18.924H22.72C22.5513 18.9239 22.387 18.8704 22.2505 18.7713C22.114 18.6721 22.0123 18.5324 21.96 18.372L21.292 16.32L20.088 20.02Z" fill="#380D75"/>
<path d="M39.2 40H0.8C0.587827 40 0.384344 39.9158 0.234315 39.7657C0.0842855 39.6157 0 39.4122 0 39.2V35.756C0 35.5439 0.0842855 35.3404 0.234315 35.1904C0.384344 35.0403 0.587827 34.956 0.8 34.956H17.48V33.944C17.48 33.7319 17.5643 33.5284 17.7143 33.3784C17.8643 33.2283 18.0678 33.144 18.28 33.144C18.4922 33.144 18.6957 33.2283 18.8457 33.3784C18.9957 33.5284 19.08 33.7319 19.08 33.944V35.756C19.08 35.9682 18.9957 36.1717 18.8457 36.3217C18.6957 36.4718 18.4922 36.556 18.28 36.556H1.6V38.4H38.4V36.556H21.72C21.5078 36.556 21.3043 36.4718 21.1543 36.3217C21.0043 36.1717 20.92 35.9682 20.92 35.756V34.04C20.92 33.8279 21.0043 33.6244 21.1543 33.4744C21.3043 33.3243 21.5078 33.24 21.72 33.24C21.9322 33.24 22.1357 33.3243 22.2857 33.4744C22.4357 33.6244 22.52 33.8279 22.52 34.04V34.956H39.2C39.4122 34.956 39.6157 35.0403 39.7657 35.1904C39.9157 35.3404 40 35.5439 40 35.756V39.2C40 39.4122 39.9157 39.6157 39.7657 39.7657C39.6157 39.9158 39.4122 40 39.2 40Z" fill="#380D75"/>
<path d="M30.3 40.0001C30.0878 40.0001 29.8843 39.9158 29.7343 39.7657C29.5843 39.6157 29.5 39.4122 29.5 39.2001V35.7561C29.5 35.5439 29.5843 35.3404 29.7343 35.1904C29.8843 35.0403 30.0878 34.9561 30.3 34.9561C30.5122 34.9561 30.7157 35.0403 30.8657 35.1904C31.0157 35.3404 31.1 35.5439 31.1 35.7561V39.2001C31.1 39.4122 31.0157 39.6157 30.8657 39.7657C30.7157 39.9158 30.5122 40.0001 30.3 40.0001Z" fill="#380D75"/>
<path d="M9.7 40.0001C9.48783 40.0001 9.28435 39.9158 9.13432 39.7657C8.98429 39.6157 8.9 39.4122 8.9 39.2001V35.7561C8.9 35.5439 8.98429 35.3404 9.13432 35.1904C9.28435 35.0403 9.48783 34.9561 9.7 34.9561C9.91218 34.9561 10.1157 35.0403 10.2657 35.1904C10.4157 35.3404 10.5 35.5439 10.5 35.7561V39.2001C10.5 39.4122 10.4157 39.6157 10.2657 39.7657C10.1157 39.9158 9.91218 40.0001 9.7 40.0001Z" fill="#380D75"/>
</g>
<defs>
<clipPath id="clip0_173_740">
<rect width="40" height="40" fill="white"/>
</clipPath>
</defs>
</svg>
