<svg width="32" height="32" viewBox="0 0 32 32" fill="none" xmlns="http://www.w3.org/2000/svg">
<g clip-path="url(#clip0_7989_15813)">
<path d="M0.638184 0.640137L31.3538 31.3557" stroke="#171321" stroke-width="1.27982" stroke-linecap="round" stroke-linejoin="round"/>
<path d="M5.48328 4.7811C5.87391 4.43799 6.38025 4.25602 6.89993 4.27196C7.4196 4.28791 7.91384 4.50059 8.28269 4.86701C8.65155 5.23342 8.86752 5.72623 8.88692 6.24579C8.90632 6.76535 8.7277 7.27289 8.3872 7.6658" stroke="#171321" stroke-width="1.27982" stroke-linecap="round" stroke-linejoin="round"/>
<path d="M24.3175 23.5813C24.7123 23.2527 25.2159 23.084 25.7289 23.1083C26.242 23.1325 26.7274 23.3481 27.0894 23.7126C27.4514 24.077 27.6637 24.5638 27.6846 25.077C27.7055 25.5902 27.5334 26.0926 27.2022 26.4852" stroke="#171321" stroke-width="1.27982" stroke-linecap="round" stroke-linejoin="round"/>
<path d="M25.411 8.64613C26.5457 8.64613 27.4655 7.72771 27.4655 6.59479C27.4655 5.46187 26.5457 4.54346 25.411 4.54346C24.2763 4.54346 23.3564 5.46187 23.3564 6.59479C23.3564 7.72771 24.2763 8.64613 25.411 8.64613Z" stroke="#171321" stroke-width="1.27982" stroke-linecap="round" stroke-linejoin="round"/>
<path d="M15.9939 4.74916C17.1286 4.74916 18.0484 3.83074 18.0484 2.69782C18.0484 1.5649 17.1286 0.646484 15.9939 0.646484C14.8592 0.646484 13.9393 1.5649 13.9393 2.69782C13.9393 3.83074 14.8592 4.74916 15.9939 4.74916Z" stroke="#171321" stroke-width="1.27982" stroke-linecap="round" stroke-linejoin="round"/>
<path d="M29.3097 18.0558C30.4444 18.0558 31.3642 17.1374 31.3642 16.0045C31.3642 14.8715 30.4444 13.9531 29.3097 13.9531C28.175 13.9531 27.2551 14.8715 27.2551 16.0045C27.2551 17.1374 28.175 18.0558 29.3097 18.0558Z" stroke="#171321" stroke-width="1.27982" stroke-linecap="round" stroke-linejoin="round"/>
<path d="M23.3576 27.0808C20.7986 28.7879 17.7273 29.5562 14.6659 29.2549C11.6045 28.9537 8.74189 27.6016 6.56462 25.4285C4.38735 23.2554 3.02981 20.3953 2.72276 17.3345C2.41571 14.2737 3.17809 11.201 4.88031 8.63867" stroke="#171321" stroke-width="1.27982" stroke-linecap="round" stroke-linejoin="round"/>
<path d="M29.139 18.0967C28.8373 19.9915 28.1277 21.7982 27.0593 23.3919" stroke="#171321" stroke-width="1.27982" stroke-linecap="round" stroke-linejoin="round"/>
<path d="M26.759 8.1748C27.9962 9.86885 28.8122 11.8332 29.1395 13.9052" stroke="#171321" stroke-width="1.27982" stroke-linecap="round" stroke-linejoin="round"/>
<path d="M18.0433 2.84766C20.1337 3.17116 22.1163 3.99071 23.8249 5.23771" stroke="#171321" stroke-width="1.27982" stroke-linecap="round" stroke-linejoin="round"/>
<path d="M8.61267 4.91114C10.2176 3.84182 12.0369 3.13638 13.9431 2.84424" stroke="#171321" stroke-width="1.27982" stroke-linecap="round" stroke-linejoin="round"/>
<path d="M5.97253 24.7739H19.9193" stroke="#171321" stroke-width="1.27982" stroke-linecap="round" stroke-linejoin="round"/>
<path d="M3.87219 20.2437H15.7905" stroke="#171321" stroke-width="1.27982" stroke-linecap="round" stroke-linejoin="round"/>
<path d="M2.66309 15.9976L11.2538 15.7129" stroke="#171321" stroke-width="1.27982" stroke-linecap="round" stroke-linejoin="round"/>
<path d="M3.87219 11.1792H6.60624" stroke="#171321" stroke-width="1.27982" stroke-linecap="round" stroke-linejoin="round"/>
</g>
<defs>
<clipPath id="clip0_7989_15813">
<rect width="31.9954" height="31.9954" fill="white"/>
</clipPath>
</defs>
</svg>
