<svg width="32" height="32" viewBox="0 0 32 32" fill="none" xmlns="http://www.w3.org/2000/svg">
<g clip-path="url(#clip0_7994_15876)">
<path d="M13.0763 6.05687C14.4881 5.59198 15.984 5.43916 17.4607 5.60898C18.9373 5.77879 20.3595 6.26719 21.6289 7.04042C22.8983 7.81366 23.9847 8.85328 24.813 10.0875C25.6413 11.3216 26.1917 12.721 26.4263 14.1887C26.6609 15.6564 26.574 17.1576 26.1716 18.5885C25.7692 20.0193 25.061 21.3458 24.0958 22.4762C23.1306 23.6065 21.9316 24.5139 20.5814 25.1354C19.2313 25.757 17.7622 26.0781 16.2759 26.0764H5.24707" stroke="#171321" stroke-width="1.27982" stroke-linecap="round" stroke-linejoin="round"/>
<path d="M29.9684 26.0762H25.3657" stroke="#171321" stroke-width="1.27982" stroke-linecap="round" stroke-linejoin="round"/>
<path d="M8.66149 22.6847C7.7388 21.6637 7.03084 20.4676 6.5797 19.1675C6.12855 17.8675 5.94345 16.49 6.03538 15.1169C6.12732 13.7439 6.49442 12.4033 7.11485 11.175C7.73528 9.94666 8.59638 8.85564 9.64694 7.9668" stroke="#171321" stroke-width="1.27982" stroke-linecap="round" stroke-linejoin="round"/>
<path d="M4.595 24.1023H0.639771V28.0575H4.595V24.1023Z" stroke="#171321" stroke-width="1.27982" stroke-linecap="round" stroke-linejoin="round"/>
<path d="M29.0454 28.484L31.3596 26.173L29.0454 23.8589" stroke="#171321" stroke-width="1.27982" stroke-linecap="round" stroke-linejoin="round"/>
<path d="M14.1259 3.51953L12.3726 6.27922L15.1323 8.03247" stroke="#171321" stroke-width="1.27982" stroke-linecap="round" stroke-linejoin="round"/>
<path d="M19.3705 13.8445L14.9488 18.2662L13.1346 16.4521" stroke="#171321" stroke-width="1.27982" stroke-linecap="round" stroke-linejoin="round"/>
</g>
<defs>
<clipPath id="clip0_7994_15876">
<rect width="31.9954" height="31.9954" fill="white"/>
</clipPath>
</defs>
</svg>
