<svg width="32" height="32" viewBox="0 0 32 32" fill="none" xmlns="http://www.w3.org/2000/svg">
<g clip-path="url(#clip0_1386_12956)">
<path d="M31.36 32C31.1905 31.9993 31.0283 31.9314 30.9088 31.8112L0.188793 1.09119C0.0695923 0.971281 0.00268555 0.809072 0.00268555 0.639993C0.00268555 0.470914 0.0695923 0.308705 0.188793 0.188793C0.308705 0.0695923 0.470914 0.00268555 0.639993 0.00268555C0.809072 0.00268555 0.971281 0.0695923 1.09119 0.188793L31.8112 30.9088C31.9002 30.9983 31.9607 31.1121 31.9852 31.2359C32.0096 31.3597 31.997 31.4879 31.9487 31.6045C31.9005 31.7212 31.8189 31.8209 31.7141 31.8913C31.6094 31.9616 31.4862 31.9995 31.36 32Z" fill="#171321"/>
<path d="M8.38393 8.32002C8.21492 8.32016 8.05272 8.25344 7.93273 8.13442C7.87322 8.07498 7.82602 8.0044 7.79381 7.9267C7.7616 7.84901 7.74502 7.76573 7.74502 7.68162C7.74502 7.59751 7.7616 7.51423 7.79381 7.43654C7.82602 7.35884 7.87322 7.28826 7.93273 7.22882C8.06867 7.09884 8.17725 6.943 8.2521 6.77046C8.32695 6.59792 8.36655 6.41216 8.36859 6.22409C8.37062 6.03602 8.33504 5.84945 8.26393 5.67533C8.19283 5.50121 8.08763 5.34306 7.95454 5.21017C7.82144 5.07729 7.66312 4.97235 7.48889 4.90153C7.31466 4.8307 7.12802 4.79542 6.93996 4.79775C6.7519 4.80009 6.5662 4.83999 6.39378 4.91511C6.22135 4.99024 6.06569 5.09908 5.93593 5.23522C5.81584 5.35531 5.65296 5.42278 5.48313 5.42278C5.3133 5.42278 5.15042 5.35531 5.03033 5.23522C4.91024 5.11513 4.84277 4.95225 4.84277 4.78242C4.84277 4.69833 4.85934 4.61506 4.89152 4.53737C4.9237 4.45968 4.97087 4.38908 5.03033 4.32962C5.53635 3.82663 6.22085 3.54431 6.93433 3.54431C7.64781 3.54431 8.3323 3.82663 8.83833 4.32962C9.34268 4.83427 9.626 5.51855 9.626 6.23202C9.626 6.94549 9.34268 7.62977 8.83833 8.13442C8.77853 8.19374 8.7076 8.24066 8.62963 8.27251C8.55165 8.30436 8.46816 8.32051 8.38393 8.32002Z" fill="#171321"/>
<path d="M27.2 27.1232C27.1156 27.1232 27.0319 27.1066 26.9539 27.0742C26.8759 27.0418 26.8051 26.9943 26.7456 26.9344C26.6861 26.8749 26.6389 26.8043 26.6067 26.7266C26.5745 26.649 26.5579 26.5657 26.5579 26.4816C26.5579 26.3975 26.5745 26.3142 26.6067 26.2365C26.6389 26.1588 26.6861 26.0882 26.7456 26.0288C27.0096 25.7642 27.1579 25.4057 27.1579 25.032C27.1579 24.6582 27.0096 24.2997 26.7456 24.0352C26.4797 23.7725 26.121 23.6252 25.7472 23.6252C25.3734 23.6252 25.0147 23.7725 24.7488 24.0352C24.6273 24.1457 24.4679 24.2053 24.3036 24.2015C24.1394 24.1977 23.9829 24.131 23.8665 24.015C23.7501 23.8991 23.6828 23.7428 23.6784 23.5785C23.6741 23.4143 23.7331 23.2547 23.8432 23.1328C24.3479 22.6284 25.0321 22.3451 25.7456 22.3451C26.4591 22.3451 27.1434 22.6284 27.648 23.1328C27.8984 23.3819 28.0971 23.6781 28.2327 24.0043C28.3683 24.3305 28.4381 24.6803 28.4381 25.0336C28.4381 25.3868 28.3683 25.7366 28.2327 26.0628C28.0971 26.389 27.8984 26.6852 27.648 26.9344C27.5293 27.0538 27.3684 27.1216 27.2 27.1232Z" fill="#171321"/>
<path d="M25.4112 9.27996C25.0551 9.28348 24.7019 9.21595 24.3722 9.08134C24.0425 8.94672 23.743 8.74771 23.4912 8.49596C23.048 8.05598 22.7709 7.47598 22.7072 6.85471C22.6435 6.23344 22.7971 5.60929 23.1418 5.08851C23.4865 4.56773 24.001 4.18251 24.5978 3.99842C25.1946 3.81433 25.8367 3.84275 26.4149 4.07884C26.9931 4.31493 27.4716 4.7441 27.7689 5.2933C28.0663 5.84249 28.1641 6.47777 28.0458 7.09098C27.9275 7.7042 27.6003 8.25745 27.1199 8.65656C26.6395 9.05567 26.0357 9.27597 25.4112 9.27996ZM24.4128 7.59036C24.6435 7.82134 24.9472 7.96517 25.2721 7.99735C25.597 8.02953 25.923 7.94808 26.1945 7.76685C26.4661 7.58563 26.6664 7.31586 26.7614 7.0035C26.8563 6.69115 26.8401 6.35552 26.7153 6.05382C26.5906 5.75212 26.3651 5.503 26.0773 5.3489C25.7894 5.19481 25.4571 5.14528 25.1368 5.20875C24.8166 5.27222 24.5283 5.44476 24.321 5.69698C24.1137 5.9492 24.0002 6.26549 24 6.59196C24.0001 6.96627 24.1485 7.3253 24.4128 7.59036Z" fill="#171321"/>
<path d="M16 5.3824C15.4676 5.3824 14.9472 5.22448 14.5046 4.92863C14.0619 4.63277 13.717 4.21228 13.5134 3.72034C13.3098 3.2284 13.2567 2.68712 13.3608 2.165C13.4649 1.64287 13.7215 1.16335 14.0982 0.787104C14.4749 0.41086 14.9547 0.154801 15.477 0.0513223C15.9992 -0.0521566 16.5404 0.00159491 17.0321 0.205776C17.5238 0.409958 17.9439 0.755393 18.2392 1.19838C18.5346 1.64137 18.6919 2.162 18.6912 2.6944C18.6904 3.4076 18.4065 4.09129 17.9019 4.5953C17.3973 5.09931 16.7132 5.3824 16 5.3824ZM16 1.28C15.7209 1.28 15.4481 1.36277 15.216 1.51783C14.9839 1.6729 14.8031 1.8933 14.6963 2.15116C14.5894 2.40902 14.5615 2.69277 14.616 2.96651C14.6704 3.24026 14.8048 3.49171 15.0022 3.68907C15.1995 3.88643 15.451 4.02083 15.7247 4.07529C15.9985 4.12974 16.2822 4.10179 16.5401 3.99498C16.7979 3.88817 17.0183 3.70729 17.1734 3.47522C17.3285 3.24315 17.4112 2.97031 17.4112 2.6912C17.4104 2.31719 17.2614 1.95873 16.997 1.69427C16.7325 1.4298 16.3741 1.28085 16 1.28Z" fill="#171321"/>
<path d="M29.3089 18.6944C28.7767 18.6944 28.2566 18.5367 27.8141 18.2411C27.3716 17.9455 27.0266 17.5254 26.8228 17.0338C26.6191 16.5423 26.5656 16.0013 26.6692 15.4794C26.7727 14.9574 27.0287 14.4779 27.4048 14.1014C27.7808 13.7249 28.2601 13.4683 28.7819 13.3641C29.3037 13.2599 29.8447 13.3128 30.3365 13.516C30.8283 13.7192 31.2489 14.0636 31.545 14.5057C31.8411 14.9479 31.9994 15.4679 32.0001 16C32.0001 16.7141 31.7166 17.3989 31.212 17.9041C30.7074 18.4093 30.0229 18.6936 29.3089 18.6944ZM29.3089 14.5952C29.0295 14.5952 28.7564 14.6781 28.5242 14.8335C28.292 14.9888 28.1111 15.2096 28.0045 15.4679C27.8979 15.7261 27.8703 16.0102 27.9253 16.2841C27.9802 16.558 28.1153 16.8094 28.3133 17.0065C28.5113 17.2036 28.7633 17.3375 29.0375 17.3913C29.3117 17.445 29.5956 17.4161 29.8534 17.3083C30.1111 17.2006 30.3311 17.0187 30.4854 16.7858C30.6397 16.5529 30.7213 16.2794 30.7201 16C30.7184 15.6268 30.569 15.2695 30.3045 15.0063C30.04 14.743 29.682 14.5952 29.3089 14.5952Z" fill="#171321"/>
<path d="M16 29.9488C13.4754 29.9539 10.9969 29.2737 8.82847 27.9809C6.66009 26.6881 4.88323 24.831 3.68732 22.6077C2.49142 20.3844 1.92132 17.8782 2.03781 15.3564C2.1543 12.8345 2.953 10.3915 4.34877 8.28795C4.39542 8.21798 4.45539 8.15789 4.52526 8.1111C4.59513 8.06431 4.67353 8.03173 4.75599 8.01524C4.83845 7.99875 4.92335 7.99866 5.00584 8.01498C5.08833 8.0313 5.1668 8.06371 5.23677 8.11035C5.30674 8.157 5.36684 8.21697 5.41363 8.28684C5.46042 8.35671 5.49299 8.43511 5.50948 8.51757C5.52598 8.60003 5.52606 8.68493 5.50975 8.76742C5.49343 8.84991 5.46102 8.92839 5.41437 8.99835C3.79654 11.4381 3.0728 14.3624 3.36603 17.2751C3.65925 20.1878 4.95137 22.9092 7.02303 24.9775C9.0947 27.0458 11.8183 28.3334 14.7314 28.6219C17.6445 28.9103 20.5677 28.1818 23.0048 26.56C23.0747 26.5133 23.1532 26.4809 23.2357 26.4646C23.3182 26.4483 23.4031 26.4484 23.4856 26.4648C23.568 26.4813 23.6464 26.5139 23.7163 26.5607C23.7862 26.6075 23.8461 26.6676 23.8928 26.7376C23.9394 26.8075 23.9718 26.886 23.9881 26.9685C24.0045 27.051 24.0044 27.1359 23.9879 27.2183C23.9714 27.3008 23.9388 27.3792 23.892 27.4491C23.8452 27.5189 23.7851 27.5789 23.7152 27.6256C21.4289 29.1441 18.7446 29.9524 16 29.9488Z" fill="#171321"/>
<path d="M27.0624 24.0352C26.9466 24.035 26.8331 24.0034 26.7339 23.9437C26.6347 23.8841 26.5535 23.7987 26.499 23.6966C26.4445 23.5944 26.4187 23.4794 26.4244 23.3638C26.43 23.2482 26.467 23.1363 26.5312 23.04C27.5494 21.5228 28.2243 19.8017 28.5088 17.9968C28.522 17.9128 28.5517 17.8321 28.5961 17.7596C28.6405 17.687 28.6987 17.6238 28.7675 17.5738C28.8363 17.5237 28.9143 17.4877 28.997 17.4677C29.0797 17.4478 29.1656 17.4444 29.2496 17.4576C29.3336 17.4708 29.4143 17.5005 29.4868 17.5449C29.5594 17.5893 29.6226 17.6475 29.6726 17.7163C29.7227 17.7851 29.7587 17.8631 29.7787 17.9458C29.7986 18.0285 29.802 18.1143 29.7888 18.1984C29.4771 20.1861 28.7332 22.0813 27.6096 23.7504C27.5498 23.8401 27.4682 23.9133 27.3726 23.9631C27.2769 24.0129 27.1702 24.0377 27.0624 24.0352Z" fill="#171321"/>
<path d="M29.1424 14.5472C28.9885 14.5491 28.8391 14.4954 28.7216 14.3961C28.6041 14.2968 28.5262 14.1584 28.5024 14.0064C28.1875 12.0352 27.4124 10.166 26.24 8.5504C26.1852 8.48294 26.1448 8.40503 26.1211 8.32142C26.0975 8.23782 26.0911 8.15027 26.1023 8.06411C26.1136 7.97795 26.1423 7.89499 26.1866 7.82028C26.231 7.74557 26.2901 7.68068 26.3604 7.62956C26.4307 7.57844 26.5106 7.54216 26.5953 7.52294C26.6801 7.50372 26.7678 7.50195 26.8533 7.51775C26.9387 7.53354 27.0201 7.56658 27.0923 7.61483C27.1646 7.66308 27.2263 7.72554 27.2736 7.7984C28.5665 9.57752 29.4216 11.6364 29.7696 13.808C29.7953 13.9756 29.7535 14.1466 29.6533 14.2834C29.5531 14.4201 29.4028 14.5116 29.2352 14.5376C29.2046 14.5436 29.1736 14.5468 29.1424 14.5472Z" fill="#171321"/>
<path d="M23.8272 5.87841C23.6931 5.87915 23.5622 5.83774 23.4528 5.76001C21.8251 4.57431 19.9384 3.79329 17.9488 3.48161C17.7866 3.44989 17.6429 3.35661 17.5479 3.22132C17.4529 3.08602 17.4139 2.91921 17.4391 2.75583C17.4644 2.59244 17.5519 2.44515 17.6833 2.34483C17.8147 2.2445 17.9798 2.19891 18.144 2.21761C20.3347 2.5614 22.4121 3.42134 24.2048 4.72641C24.3132 4.80627 24.3936 4.91826 24.4347 5.04645C24.4757 5.17464 24.4753 5.31252 24.4335 5.44046C24.3917 5.5684 24.3106 5.6799 24.2017 5.7591C24.0929 5.8383 23.9618 5.88117 23.8272 5.88161V5.87841Z" fill="#171321"/>
<path d="M8.61131 5.55194C8.4734 5.5526 8.33897 5.50869 8.22803 5.42675C8.11709 5.34482 8.03559 5.22924 7.99567 5.09723C7.95574 4.96522 7.95953 4.82385 8.00646 4.69416C8.05339 4.56448 8.14095 4.45343 8.25611 4.37754C9.93933 3.25644 11.8474 2.51703 13.8465 2.21114C14.0108 2.19244 14.1759 2.23803 14.3073 2.33836C14.4387 2.43868 14.5262 2.58597 14.5514 2.74936C14.5766 2.91274 14.5377 3.07955 14.4427 3.21485C14.3476 3.35014 14.204 3.44342 14.0417 3.47514C12.2244 3.75018 10.4897 4.42091 8.96011 5.43994C8.85724 5.51046 8.73601 5.54939 8.61131 5.55194Z" fill="#171321"/>
<path d="M19.9233 25.4176H5.97447C5.80473 25.4176 5.64195 25.3501 5.52192 25.2301C5.4019 25.1101 5.33447 24.9473 5.33447 24.7776C5.33447 24.6078 5.4019 24.445 5.52192 24.325C5.64195 24.205 5.80473 24.1376 5.97447 24.1376H19.9233C20.093 24.1376 20.2558 24.205 20.3758 24.325C20.4958 24.445 20.5633 24.6078 20.5633 24.7776C20.5633 24.9473 20.4958 25.1101 20.3758 25.2301C20.2558 25.3501 20.093 25.4176 19.9233 25.4176Z" fill="#171321"/>
<path d="M15.7919 20.8864H3.87193C3.7022 20.8864 3.53941 20.819 3.41939 20.699C3.29936 20.579 3.23193 20.4162 3.23193 20.2464C3.23193 20.0767 3.29936 19.9139 3.41939 19.7939C3.53941 19.6739 3.7022 19.6064 3.87193 19.6064H15.7919C15.9617 19.6064 16.1245 19.6739 16.2445 19.7939C16.3645 19.9139 16.4319 20.0767 16.4319 20.2464C16.4319 20.4162 16.3645 20.579 16.2445 20.699C16.1245 20.819 15.9617 20.8864 15.7919 20.8864Z" fill="#171321"/>
<path d="M11.2543 16.3552H3.87193C3.7022 16.3552 3.53941 16.2878 3.41939 16.1677C3.29936 16.0477 3.23193 15.8849 3.23193 15.7152C3.23193 15.5455 3.29936 15.3827 3.41939 15.2626C3.53941 15.1426 3.7022 15.0752 3.87193 15.0752H11.2543C11.4241 15.0752 11.5869 15.1426 11.7069 15.2626C11.8269 15.3827 11.8943 15.5455 11.8943 15.7152C11.8943 15.8849 11.8269 16.0477 11.7069 16.1677C11.5869 16.2878 11.4241 16.3552 11.2543 16.3552Z" fill="#171321"/>
<path d="M6.60153 11.8208H3.87193C3.7022 11.8208 3.53941 11.7533 3.41939 11.6333C3.29936 11.5133 3.23193 11.3505 3.23193 11.1808C3.23193 11.011 3.29936 10.8482 3.41939 10.7282C3.53941 10.6082 3.7022 10.5408 3.87193 10.5408H6.60153C6.77127 10.5408 6.93406 10.6082 7.05408 10.7282C7.17411 10.8482 7.24153 11.011 7.24153 11.1808C7.24153 11.3505 7.17411 11.5133 7.05408 11.6333C6.93406 11.7533 6.77127 11.8208 6.60153 11.8208Z" fill="#171321"/>
</g>
<defs>
<clipPath id="clip0_1386_12956">
<rect width="32" height="32" fill="white"/>
</clipPath>
</defs>
</svg>
